Generalized Additive Models with R and mgcv
…
[File format](https://www.metoffice.gov.uk/hadobs/hadcrut4/data/current/series_format.html)

---

# HadCRUT data set

```r
gtemp
```

```
## # A tibble: 172 × 2
##     Year Temperature
##    <dbl>       <dbl>
##  1  1850          NA
##  2  1851          NA
##  3  1852          NA
##  4  1853          NA
##  5  1854          NA
##  6  1855          NA
##  7  1856          NA
##  8  1857          NA
##  9  1858          NA
## 10  1859          NA
## # … with 162 more rows
```
…
